{
  "formatVersion": 1,
  "database": {
    "version": 1,
    "identityHash": "f24caab16a9d6c4529e430de46980615",
    "entities": [
      {
        "tableName": "CharacterEntity",
        "createSql": "CREATE TABLE IF NOT EXISTS `${TABLE_NAME}` (`id` INTEGER PRIMARY KEY AUTOINCREMENT NOT NULL, `name` TEXT NOT NULL, `image` TEXT NOT NULL, `gender` TEXT NOT NULL, `hairColor` TEXT NOT NULL, `occupation` TEXT NOT NULL, `firstEpisode` TEXT NOT NULL, `voicedBy` TEXT NOT NULL, `url` TEXT NOT NULL, `wikiUrl` TEXT NOT NULL, `favorite` INTEGER NOT NULL)",
        "fields": [
          {
            "fieldPath": "id",
            "columnName": "id",
            "affinity": "INTEGER",
            "notNull": true
          },
          {
            "fieldPath": "name",
            "columnName": "name",
            "affinity": "TEXT",
            "notNull": true
          },
          {
            "fieldPath": "image",
            "columnName": "image",
            "affinity": "TEXT",
            "notNull": true
          },
          {
            "fieldPath": "gender",
            "columnName": "gender",
            "affinity": "TEXT",
            "notNull": true
          },
          {
            "fieldPath": "hairColor",
            "columnName": "hairColor",
            "affinity": "TEXT",
            "notNull": true
          },
          {
            "fieldPath": "occupation",
            "columnName": "occupation",
            "affinity": "TEXT",
            "notNull": true
          },
          {
            "fieldPath": "firstEpisode",
            "columnName": "firstEpisode",
            "affinity": "TEXT",
            "notNull": true
          },
          {
            "fieldPath": "voicedBy",
            "columnName": "voicedBy",
            "affinity": "TEXT",
            "notNull": true
          },
          {
            "fieldPath": "url",
            "columnName": "url",
            "affinity": "TEXT",
            "notNull": true
          },
          {
            "fieldPath": "wikiUrl",
            "columnName": "wikiUrl",
            "affinity": "TEXT",
            "notNull": true
          },
          {
            "fieldPath": "favorite",
            "columnName": "favorite",
            "affinity": "INTEGER",
            "notNull": true
          }
        ],
        "primaryKey": {
          "columnNames": [
            "id"
          ],
          "autoGenerate": true
        },
        "indices": [],
        "foreignKeys": []
      }
    ],
    "views": [],
    "setupQueries": [
      "CREATE TABLE IF NOT EXISTS room_master_table (id INTEGER PRIMARY KEY,identity_hash TEXT)",
      "INSERT OR REPLACE INTO room_master_table (id,identity_hash) VALUES(42, 'f24caab16a9d6c4529e430de46980615')"
    ]
  }
}